Case 3: Encontrando padrões nos dados
…
A classe estimada

A probabilidade estimada

O percentual de observações que caíram no nó

df %>% select(negros1000)

## Simple feature collection with 96 features and 1 field
## geometry type:  POLYGON
## dimension:      XY
## bbox:           xmin: 313394.9 ymin: 7343708 xmax: 360619.8 ymax: 7416189
## projected CRS:  SIRGAS 2000 / UTM zone 23S
## # A tibble: 96 x 2
##    negros1000                                                           geometry
##         <dbl>                                                      <POLYGON [m]>
##  1      11.7  ((338561.8 7394464, 338561.9 7394464, 338564.8 7394467, 338597.4 …
##  2       3.48 ((325006.5 7396177, 325108.6 7396178, 325117.1 7396178, 325117.2 …
##  3      33.1  ((313586.5 7410659, 313610.4 7410668, 313612.3 7410669, 313634.8 …
##  4      24.7  ((344972.5 7394014, 344984.4 7394022, 344998.6 7394033, 345011.4 …
##  5      39.0  ((349341.7 7397697, 349408.1 7397721, 349411.6 7397722, 349434.8 …
##  6       2.25 ((327682.2 7397741, 327675.9 7397752, 327674.8 7397753, 327673.1 …
##  7      15.0  ((331873.4 7394449, 331874.7 7394453, 331880.7 7394470, 331884.1 …
##  8      11.1  ((336579.3 7395217, 336227.3 7395136, 336216 7395153, 336151.4 73…
##  9      10.6  ((334062.6 7397272, 334056 7396858, 334053.8 7396717, 334052 7396…
## 10       9.79 ((335159.1 7396405, 335255.7 7396512, 335299.2 7396560, 335385.9 …
## # … with 86 more rows
…
